Statistical inference with the GSS data by Kunyu HE
…
rm(most_NA_10)

2.2 Research question

Expectations affect individual behaviours and creat gross impacts on the economy. For instance, those with lower expectation, or confidence in banks and finicial institutions are less likely to save or invest, which would decrease the gross saving and investment rate and hence hamper the economic growth.

However, confidence in banks and finicial institutions are most likely to be affected by the economic situation, and comparison across years will undoubtedly mislead us to wrong conclusions on associations. Therefore, we need to base our study on a particular year with highest number of observations among years, in order that we can assume economic situation to be relatively constant.

gss %>%
  group_by(year)%>%
  summarise(count=n())%>%
  arrange(desc(count))

## # A tibble: 29 x 2
##     year count
##    <int> <int>
##  1  2006  4510
##  2  1994  2992
##  3  1996  2904
##  4  1998  2832
##  5  2000  2817
##  6  2004  2812
##  7  2002  2765
##  8  2010  2044
##  9  2008  2023
## 10  2012  1974
## # ... with 19 more rows
…
